<?xml version="1.0" standalone="no"?>
<!DOCTYPE svg PUBLIC "-//W3C//DTD SVG 20010904//EN"
 "http://www.w3.org/TR/2001/REC-SVG-20010904/DTD/svg10.dtd">
<svg version="1.0" xmlns="http://www.w3.org/2000/svg"
 width="250.000000pt" height="250.000000pt" viewBox="0 0 250.000000 250.000000"
 preserveAspectRatio="xMidYMid meet">
<metadata>
Created by potrace 1.11, written by Peter Selinger 2001-2013
</metadata>
<g transform="translate(0.000000,250.000000) scale(0.100000,-0.100000)"
fill="#000000" stroke="none">
<path d="M0 1250 l0 -1250 1250 0 1250 0 0 1250 0 1250 -1250 0 -1250 0 0
-1250z m1362 985 c171 -36 326 -132 511 -316 138 -138 152 -163 95 -183 -42
-15 -66 -1 -200 115 -146 126 -233 188 -320 229 -74 35 -181 50 -216 31 l-22
-12 21 -42 c13 -25 76 -94 158 -172 235 -223 464 -457 519 -530 128 -170 204
-407 180 -560 -20 -131 -121 -251 -284 -337 -348 -183 -807 -186 -1181 -8
-122 58 -180 96 -252 164 -73 69 -101 131 -101 221 0 314 456 469 985 335 131
-33 215 -72 273 -130 36 -34 43 -47 40 -73 -4 -40 -30 -54 -137 -69 -91 -12
-131 -3 -131 31 0 37 12 51 51 57 56 9 57 21 4 45 -159 71 -514 102 -688 60
-110 -26 -152 -48 -204 -104 -68 -74 -76 -138 -27 -224 80 -139 361 -263 667
-293 289 -28 605 51 744 187 73 71 98 128 97 223 -1 215 -152 435 -537 783
-296 267 -376 368 -364 458 7 55 31 87 80 110 51 23 144 25 239 4z"/>
</g>
</svg>
