<svg width="35" height="40" xmlns="http://www.w3.org/2000/svg">
 <!-- Created with SVG-edit - http://svg-edit.googlecode.com/ -->
 <g>
  <title>Layer 1</title>
  <path fill="#568391" stroke="#000000" stroke-width="0" stroke-linejoin="null" stroke-linecap="null" d="m-2.41012,37.475l19.76532,-34.589l19.7651,34.589l-39.53042,0z" id="svg_1" transform="rotate(90.0492172241211 17.355091094970703,20.180500030517585) "/>
 </g>
</svg>