<?xml version="1.0" encoding="utf-8"?>
<!-- Generator: Adobe Illustrator 17.1.0, SVG Export Plug-In . SVG Version: 6.00 Build 0)  -->
<!DOCTYPE svg PUBLIC "-//W3C//DTD SVG 1.1//EN" "http://www.w3.org/Graphics/SVG/1.1/DTD/svg11.dtd">
<svg version="1.1" id="Layer_1" xmlns="http://www.w3.org/2000/svg" xmlns:xlink="http://www.w3.org/1999/xlink" x="0px" y="0px"
	 width="25px" height="25px" viewBox="0 0 25 25" enable-background="new 0 0 25 25" xml:space="preserve">
<path id="twitter_6_" fill-rule="evenodd" clip-rule="evenodd" fill="#fff" d="M16.1,4.6c1.6,0,2.4,0.6,3.2,1.3
	c0.7-0.1,1.6-0.4,2.1-0.7c0.2-0.1,0.3-0.2,0.5-0.3c-0.3,0.8-0.7,1.4-1.3,1.9c-0.1,0.1-0.3,0.2-0.4,0.3l0,0c0.9,0,1.6-0.4,2.3-0.6
	l0,0C22,7.1,21.5,7.6,21,8.1c-0.2,0.2-0.4,0.3-0.6,0.5c0,0.9,0,1.8-0.2,2.6c-1,4.5-3.7,7.6-8,8.9c-1.5,0.5-4,0.6-5.7,0.2
	c-0.9-0.2-1.6-0.5-2.4-0.8C3.7,19.2,3.4,19,3,18.8c-0.1-0.1-0.2-0.1-0.4-0.2c0.4,0,0.8,0.1,1.3,0.1c0.4-0.1,0.8,0,1.2-0.1
	c0.9-0.2,1.7-0.5,2.4-0.9c0.3-0.2,0.9-0.4,1.1-0.7c-0.5,0-0.9-0.1-1.2-0.2c-1.3-0.5-2.1-1.3-2.5-2.6c0.4,0,1.5,0.2,1.8-0.1
	c-0.5,0-1-0.3-1.3-0.5c-1-0.7-1.9-1.8-1.9-3.5c0.1,0.1,0.3,0.1,0.4,0.2c0.3,0.1,0.5,0.2,0.8,0.2c0.1,0,0.4,0.1,0.5,0.1c0,0,0,0,0,0
	c-0.2-0.2-0.5-0.4-0.7-0.7C3.9,9.1,3.2,7.8,3.7,6.3c0.1-0.4,0.3-0.7,0.4-1c0,0,0,0,0,0c0.1,0.2,0.3,0.3,0.4,0.4
	c0.3,0.4,0.8,0.8,1.2,1.2C7.1,8,8.4,8.7,10.6,9.2c0.5,0.1,1.2,0.2,1.8,0.2c-0.2-0.5-0.1-1.4,0-1.9c0.4-1.3,1.2-2.2,2.3-2.7
	c0.3-0.1,0.6-0.2,0.9-0.3C15.8,4.6,15.9,4.6,16.1,4.6z"/>
</svg>
