{
    "ProfileId": 500110000457,
    "Subscriptions": [
        {
            "ChannelCode": "EM",
            "SubscriptionName": "Fran HC Reminder",
            "OptStatus": "Y"
        },
        {
            "ChannelCode": "EM",
            "SubscriptionName": "Email Newsletter",
            "OptStatus": "Y"
        },
        {
            "ChannelCode": "EM",
            "SubscriptionName": "Email",
            "OptStatus": "Y"
        }
    ],
    "TrackingId": "0e25c5d9-3c1f-4e11-8589-ce5f38537a99",
    "ResponseMessage": "Success",
    "ResponseCode": "000",
    "Token": "47d3b5ea79db8344a2d2cbc11ec11b778a6aaba3890b926c630509a2c69d3294cac8898b97273b6217e112bb6509bfb9656c8a52910edd79e8b61ce7af49c60da68721e821e703668461a898b4e0ca96180f12aa8509e24ca97b98e74d0be6717e323b0bc0f58d3dca2ea654870495098843424027448ef08dce7e2857e168fd"
}