<?xml version="1.0" encoding="utf-8"?>
<!-- Generator: Adobe Illustrator 17.1.0, SVG Export Plug-In . SVG Version: 6.00 Build 0)  -->
<!DOCTYPE svg PUBLIC "-//W3C//DTD SVG 1.1//EN" "http://www.w3.org/Graphics/SVG/1.1/DTD/svg11.dtd">
<svg version="1.1" id="Layer_1" xmlns="http://www.w3.org/2000/svg" xmlns:xlink="http://www.w3.org/1999/xlink" x="0px" y="0px"
	 width="25px" height="25px" viewBox="0 0 25 25" enable-background="new 0 0 25 25" xml:space="preserve">
<g>
	<line fill="none" stroke="#FFF" stroke-width="1.5" stroke-miterlimit="10" x1="15.5" y1="15.5" x2="22.4" y2="22.4"/>
	<path fill="none" stroke="#FFF" stroke-width="1.5" stroke-miterlimit="10" d="M17.4,8.5c1.2,5.8-4.3,10.8-10.1,8.6
		c-1.9-0.7-3.4-2.2-4.1-4.1C1,7.1,5.9,1.6,11.7,2.8C14.6,3.4,16.8,5.6,17.4,8.5z"/>
</g>
</svg>
