<?xml version="1.0" encoding="utf-8"?>
<!-- Generator: Adobe Illustrator 17.1.0, SVG Export Plug-In . SVG Version: 6.00 Build 0)  -->
<!DOCTYPE svg PUBLIC "-//W3C//DTD SVG 1.1//EN" "http://www.w3.org/Graphics/SVG/1.1/DTD/svg11.dtd">
<svg version="1.1" id="Layer_1" xmlns="http://www.w3.org/2000/svg" xmlns:xlink="http://www.w3.org/1999/xlink" x="0px" y="0px"
	 width="25px" height="25px" viewBox="0 0 25 25" enable-background="new 0 0 25 25" xml:space="preserve">
<path id="facebook_6_" fill-rule="evenodd" clip-rule="evenodd" fill="#727173" d="M17.1,2.7c0,1.1,0,3.2,0,3.2s-2.3-0.2-2.9,0.6
	C13.9,7,14,8.4,14,9.4c1,0,2.1,0,3.1,0c-0.3,1.2-0.5,2-0.7,3c-0.9,0-2.5,0-2.5,0l-0.1,9.8c0,0-2.9,0-4.3,0c0-3,0-6.6,0.1-9.8
	c-0.7,0-1.2,0-1.8,0c0-1.1,0-2,0-3.1c0.6,0,1.2,0,1.8,0C9.8,7.2,9.9,4.9,11,3.8C12.3,2.5,13.5,2.7,17.1,2.7z"/>
</svg>
