<svg width="26" height="26" xmlns="http://www.w3.org/2000/svg">
 <!-- Created with SVG-edit - http://svg-edit.googlecode.com/ -->
 <g>
  <title>Layer 1</title>
  <g id="svg_6">
   <circle id="svg_1" r="9.867309" cy="12.749997" cx="12.249997" stroke="#727173" fill="#ffffff"/>
  </g>
 </g>
</svg>