<?xml version="1.0" encoding="utf-8"?>
<!-- Generator: Adobe Illustrator 17.1.0, SVG Export Plug-In . SVG Version: 6.00 Build 0)  -->
<!DOCTYPE svg PUBLIC "-//W3C//DTD SVG 1.1//EN" "http://www.w3.org/Graphics/SVG/1.1/DTD/svg11.dtd">
<svg version="1.1" id="Layer_1" xmlns="http://www.w3.org/2000/svg" xmlns:xlink="http://www.w3.org/1999/xlink" x="0px" y="0px"
	 width="25px" height="25px" viewBox="0 0 25 25" enable-background="new 0 0 25 25" xml:space="preserve">
<g>
	<g>
		<g>
			<path fill="#727173" d="M3.7,15.7c-1.7,0-3.2-1.4-3.2-3.2s1.4-3.2,3.2-3.2s3.2,1.4,3.2,3.2S5.4,15.7,3.7,15.7z M3.7,9.9
				c-1.4,0-2.6,1.2-2.6,2.6s1.2,2.6,2.6,2.6s2.6-1.2,2.6-2.6S5.1,9.9,3.7,9.9z"/>
		</g>
		<g>
			<circle fill="#727173" cx="3.7" cy="12.5" r="0.8"/>
		</g>
	</g>
	<g>
		<g>
			<path fill="#727173" d="M21.4,15.7c-1.7,0-3.2-1.4-3.2-3.2s1.4-3.2,3.2-3.2c1.7,0,3.2,1.4,3.2,3.2S23.2,15.7,21.4,15.7z
				 M21.4,9.9c-1.4,0-2.6,1.2-2.6,2.6s1.2,2.6,2.6,2.6s2.6-1.2,2.6-2.6S22.8,9.9,21.4,9.9z"/>
		</g>
		<g>
			<circle fill="#727173" cx="21.4" cy="12.5" r="0.8"/>
		</g>
	</g>
	<g>
		<rect x="8.8" y="12.1" fill="#727173" width="2.6" height="0.9"/>
		<rect x="13.9" y="12.1" fill="#727173" width="2.6" height="0.9"/>
	</g>
</g>
</svg>
