<?xml version="1.0" encoding="UTF-8" standalone="no"?>
<svg width="33px" height="32px" viewBox="0 0 33 32" version="1.1" xmlns="http://www.w3.org/2000/svg" xmlns:xlink="http://www.w3.org/1999/xlink" xmlns:sketch="http://www.bohemiancoding.com/sketch/ns">
    <!-- Generator: Sketch 3.4.2 (15855) - http://www.bohemiancoding.com/sketch -->
    <title>Share Plus Icon</title>
    <desc>Created with Sketch.</desc>
    <defs></defs>
    <g id="Page-1" stroke="none" stroke-width="1" fill="none" fill-rule="evenodd" sketch:type="MSPage">
        <g id="Share-Plus-Icon" sketch:type="MSArtboardGroup" stroke="#f3f3f3" stroke-width="3" stroke-linecap="square">
            <path d="M16.5,1.6 L16.5,30.4249893" id="Line" sketch:type="MSShapeGroup"></path>
            <path d="M2,15 L30.8249893,15" id="Line-Copy" sketch:type="MSShapeGroup"></path>
        </g>
    </g>
</svg>