{
    "ProfileId": 500110000457,
    "Preferences": [
        {
            "PreferenceCode": "PREF_SALON",
            "PreferenceValue": "81019"
        },
        {
            "PreferenceCode": "FRAN_REMIND_INT",
            "PreferenceValue": "2"
        },
        {
            "PreferenceCode": "FRAN_REMIND_START_DATE",
            "PreferenceValue": "9/3/0017 1:30:00 PM"
        },
        {
            "PreferenceCode": "GUEST1_FN",
            "PreferenceValue": "MOLLY"
        },
        {
            "PreferenceCode": "GUEST1_LN",
            "PreferenceValue": "MEHTA"
        },
        {
            "PreferenceCode": "GUEST1_SV1",
            "PreferenceValue": "supercut"
        },
        {
            "PreferenceCode": "GUEST1_SV2",
            "PreferenceValue": "supercolor"
        },
        {
            "PreferenceCode": "GUEST2_FN",
            "PreferenceValue": "RAJA"
        },
        {
            "PreferenceCode": "GUEST2_LN",
            "PreferenceValue": "BETA"
        },
        {
            "PreferenceCode": "GUEST2_SV1",
            "PreferenceValue": "supercolor"
        },
        {
            "PreferenceCode": "GUEST2_SV2",
            "PreferenceValue": "waxing"
        },
        {
            "PreferenceCode": "GUEST2_SV3",
            "PreferenceValue": "supercut"
        },
        {
            "PreferenceCode": "CI_SERV_1",
            "PreferenceValue": "supercut"
        },
        {
            "PreferenceCode": "CI_SERV_2",
            "PreferenceValue": "supercolor"
        },
        {
            "PreferenceCode": "CI_SERV_3",
            "PreferenceValue": "waxing"
        }
    ],
    "TrackingId": "0e25c5d9-3c1f-4e11-8589-ce5f38537a99",
    "ResponseMessage": "Success",
    "ResponseCode": "000",
    "Token": "47d3b5ea79db8344a2d2cbc11ec11b778a6aaba3890b926c630509a2c69d3294cac8898b97273b6217e112bb6509bfb9f9bf4307797c31008cd06739b7cd5e6abfb115a01af25b8753b5d4d64de3864cc21754c8070d928b4d9c7edab844b6564d115f15355f448c4c4938bbdc870a2b2422b3bf890ff3a96483108516216be6"
}