<?xml version="1.0" encoding="UTF-8" standalone="no"?>
<svg width="37px" height="38px" viewBox="0 0 37 38" version="1.1" xmlns="http://www.w3.org/2000/svg" xmlns:xlink="http://www.w3.org/1999/xlink" xmlns:sketch="http://www.bohemiancoding.com/sketch/ns">
    <!-- Generator: Sketch 3.4 (15575) - http://www.bohemiancoding.com/sketch -->
    <title>Circle Arrow CTA Teal</title>
    <desc>Created with Sketch.</desc>
    <defs></defs>
    <g id="Page-1" stroke="none" stroke-width="1" fill="none" fill-rule="evenodd" sketch:type="MSPage">
        <g id="Circle-Arrow-CTA-Teal" sketch:type="MSArtboardGroup">
            <g id="Page-1" sketch:type="MSLayerGroup" transform="translate(1.000000, 1.000000)">
                <path d="M0,17.5 C0,7.83485294 7.83485294,0 17.5,0 C27.1651471,0 35,7.83485294 35,17.5 C35,27.1651471 27.1651471,35 17.5,35 C7.83485294,35 0,27.1651471 0,17.5" id="Fill-1" fill="#455F6C" sketch:type="MSShapeGroup"></path>
                <path d="M15.9484706,21.4940147 L14.9262647,20.4718088 L18.0289118,17.3691618 L14.9262647,14.2665147 L15.9484706,13.2443088 L20.0733235,17.3691618 L15.9484706,21.4940147 Z" id="Fill-3" fill="#FFFFFF" sketch:type="MSShapeGroup"></path>
            </g>
        </g>
    </g>
</svg>