<?xml version="1.0" encoding="utf-8"?>
<!-- Generator: Adobe Illustrator 18.0.0, SVG Export Plug-In . SVG Version: 6.00 Build 0)  -->
<!DOCTYPE svg PUBLIC "-//W3C//DTD SVG 1.1//EN" "http://www.w3.org/Graphics/SVG/1.1/DTD/svg11.dtd">
<svg version="1.1" id="Layer_1" xmlns="http://www.w3.org/2000/svg" xmlns:xlink="http://www.w3.org/1999/xlink" x="0px" y="0px"
	 viewBox="0 0 612 792" enable-background="new 0 0 612 792" xml:space="preserve">
<radialGradient id="SVGID_1_" cx="492.0709" cy="61.0361" r="4.6186" gradientTransform="matrix(11.2194 0 0 -6.8748 -5235.2715 1156.8782)" gradientUnits="userSpaceOnUse">
	<stop  offset="1.381140e-02" style="stop-color:#000000;stop-opacity:0.4"/>
	<stop  offset="1" style="stop-color:#010101;stop-opacity:0"/>
</radialGradient>
<path fill="url(#SVGID_1_)" d="M339.2,735.3c0,18.1-24.1,32.5-54.2,32.5c-30.1,0-54.2-14.5-54.2-32.5c0-18.1,24.1-27.7,54.2-27.7
	C315,706.4,339.2,716.1,339.2,735.3z"/>
<g>
	
		<image overflow="visible" opacity="0.75" enable-background="new    " width="204" height="213" xlink:href="C23CE7673845D6F4.png"  transform="matrix(2.8364 0 0 2.7981 28.5456 158.8087)">
	</image>
	<g>
		<path fill="#1B3E6F" d="M287.3,722.1c-2.4,0-3.6,0-4.8-1.2c-3.6-2.4-6-6-6-9.6L268,483.4L77.6,610c-2.4,1.2-3.6,2.4-6,2.4
			s-3.6,0-4.8-1.2c-1.2-1.2-3.6-2.4-3.6-3.6c-3.6-4.8-2.4-12.1,2.4-15.7l201.3-172.4l-7.2-110.9c-3.6-1.2-7.2-2.4-10.8-3.6
			c-18.1-9.6-30.1-28.9-31.3-50.6c-2.4-32.5,19.3-61.5,47-63.9c1.2,0,2.4,0,3.6,0c7.2,0,14.5,1.2,20.5,4.8
			c18.1,9.6,30.1,28.9,31.3,50.6c1.2,24.1-9.6,45.8-26.5,56.7l10.8,59.1l18.1,21.7l27.7,2.4l63.9-30.1c0-8.4,1.2-18.1,6-25.3
			c8.4-16.9,26.5-27.7,45.8-27.7c8.4,0,15.7,2.4,22.9,6c6,3.6,12.1,8.4,16.9,13.3l1.2-1.2c9.6-6,19.3-9.6,30.1-9.6
			c8.4,0,16.9,2.4,24.1,6c6,3.6,12.1,7.2,15.7,13.3l1.2,1.2c2.4,3.6,2.4,7.2,0,10.8l-4.8,6l-12.1-4.8l0,0c-1.2-1.2-2.4-1.2-3.6-2.4
			c-4.8-2.4-9.6-3.6-15.7-3.6c-10.8,0-21.7,4.8-27.7,14.5c0,8.4-1.2,16.9-6,25.3c-8.4,16.9-26.5,27.7-45.8,27.7
			c-8.4,0-15.7-2.4-22.9-6c-6-2.4-10.8-7.2-14.5-10.8l-102.5,62.7l-22.9,261.6C298.2,718.5,293.3,722.1,287.3,722.1z M295.8,418.3
			c-3.6,0-7.2,2.4-9.6,6c-1.2,2.4-1.2,6-1.2,8.4c1.2,2.4,2.4,4.8,4.8,6c1.2,1.2,3.6,1.2,4.8,1.2c3.6,0,7.2-2.4,9.6-6
			c1.2-2.4,1.2-6,1.2-8.4c-1.2-2.4-2.4-4.8-4.8-6C299.4,418.3,297,418.3,295.8,418.3z M462.1,327.9c-9.6,0-18.1,4.8-21.7,13.3
			c-3.6,6-3.6,12.1-1.2,19.3c2.4,6,6,12.1,12.1,14.5c3.6,2.4,7.2,2.4,10.8,2.4c9.6,0,18.1-4.8,21.7-13.3c6-12.1,1.2-27.7-10.8-33.8
			C470.5,329.1,465.7,327.9,462.1,327.9z M264.4,215.8c-14.5,1.2-24.1,16.9-22.9,36.2c1.2,13.3,7.2,25.3,16.9,30.1
			c2.4,1.2,6,2.4,9.6,2.4h1.2c14.5-1.2,24.1-16.9,22.9-36.2c-1.2-13.3-7.2-25.3-16.9-30.1c-3.6-1.2-6-2.4-9.6-2.4H264.4z"/>
		<path fill="#FFFFFF" d="M265.6,192.9c7.2,0,13.3,1.2,19.3,4.8c16.9,8.4,27.7,26.5,28.9,48.2c1.2,24.1-9.6,45.8-27.7,55.5
			l10.8,61.5l19.3,24.1l30.1,2.4l67.5-31.3c-1.2-8.4,1.2-18.1,4.8-26.5c8.4-16.9,25.3-25.3,42.2-25.3c7.2,0,14.5,1.2,21.7,4.8
			c7.2,3.6,13.3,8.4,16.9,14.5c1.2,0,2.4-1.2,3.6-1.2l1.2-1.2c8.4-6,18.1-8.4,27.7-8.4c7.2,0,15.7,1.2,21.7,4.8s10.8,7.2,14.5,12.1
			c0,0,0,0,0,1.2l0,0c1.2,1.2,2.4,4.8,0,7.2l-2.4,3.6l-4.8-2.4l0,0c-1.2-1.2-2.4-2.4-4.8-2.4c-6-2.4-10.8-3.6-16.9-3.6
			c-12.1,0-24.1,6-31.3,16.9c0,8.4-1.2,16.9-4.8,24.1c-8.4,16.9-25.3,25.3-42.2,25.3c-7.2,0-14.5-1.2-21.7-4.8
			c-6-3.6-12.1-7.2-15.7-13.3l-106.1,66.3l-21.7,261.6c0,4.8-3.6,7.2-8.4,7.2l0,0c-1.2,0-2.4,0-3.6-1.2c-2.4-1.2-4.8-3.6-4.8-7.2
			l-7.2-231.5L75.2,606.4c-1.2,1.2-2.4,1.2-4.8,1.2c-1.2,0-2.4,0-3.6-1.2c-1.2,0-2.4-1.2-2.4-2.4c-2.4-3.6-2.4-8.4,1.2-10.8
			L268,419.5L260.8,305c-4.8-1.2-8.4-2.4-12.1-3.6c-16.9-8.4-27.7-26.5-28.9-48.2c-2.4-31.3,16.9-57.9,43.4-60.3
			C263.2,192.9,264.4,192.9,265.6,192.9 M268,286.9h1.2c15.7-1.2,27.7-19.3,26.5-39.8c-1.2-14.5-8.4-27.7-19.3-32.5
			c-3.6-1.2-7.2-2.4-10.8-2.4h-1.2c-15.7,1.2-27.7,19.3-26.5,39.8c1.2,14.5,8.4,27.7,19.3,32.5C260.8,285.7,264.4,286.9,268,286.9
			 M462.1,382.1c10.8,0,20.5-6,25.3-15.7c7.2-14.5,1.2-31.3-12.1-38.6c-4.8-2.4-8.4-2.4-13.3-2.4c-10.8,0-20.5,6-25.3,15.7
			c-7.2,13.3-1.2,31.3,12.1,38.6C453.7,380.9,457.3,382.1,462.1,382.1 M295.8,443.6c4.8,0,9.6-2.4,12.1-7.2c3.6-7.2,1.2-15.7-6-19.3
			c-2.4-1.2-4.8-1.2-6-1.2c-4.8,0-9.6,2.4-12.1,7.2c-3.6,7.2-1.2,15.7,6,19.3C290.9,442.4,293.3,443.6,295.8,443.6 M265.6,186.8
			L265.6,186.8L265.6,186.8c-1.2,0-2.4,0-3.6,0c-30.1,2.4-53,32.5-50.6,67.5c1.2,24.1,14.5,44.6,32.5,54.2c2.4,1.2,6,2.4,9.6,3.6
			l7.2,106.1l-198.9,170c-6,4.8-7.2,13.3-2.4,20.5c1.2,2.4,3.6,3.6,4.8,4.8c2.4,0,4.8,1.2,7.2,1.2s6-1.2,8.4-2.4l185.6-121.8
			l7.2,220.6c0,4.8,3.6,9.6,8.4,13.3c2.4,1.2,4.8,1.2,7.2,1.2c8.4,0,14.5-6,14.5-14.5l22.9-260.4l98.8-60.3
			c3.6,3.6,8.4,7.2,13.3,9.6c7.2,3.6,15.7,6,24.1,6c20.5,0,38.6-10.8,48.2-28.9c3.6-7.2,6-16.9,6-25.3c6-7.2,14.5-12.1,24.1-12.1
			c4.8,0,9.6,1.2,14.5,3.6c1.2,0,2.4,1.2,2.4,1.2l0,0l1.2,1.2l4.8,2.4l4.8,2.4l3.6-4.8l2.4-3.6c3.6-4.8,3.6-10.8,0-15.7l0,0l0,0
			c0,0,0,0,0-1.2c-4.8-6-10.8-9.6-16.9-13.3c-7.2-3.6-16.9-6-25.3-6c-10.8,0-20.5,3.6-30.1,8.4c-4.8-4.8-9.6-8.4-15.7-12.1
			c-7.2-3.6-15.7-6-24.1-6c-20.5,0-38.6,10.8-48.2,28.9c-3.6,7.2-6,15.7-6,25.3l-61.5,27.7l-25.3-1.2L305.4,358l-9.6-55.5
			c18.1-12.1,27.7-35,26.5-59.1c-1.2-24.1-14.5-44.6-32.5-54.2C281.3,188.1,272.8,186.8,265.6,186.8L265.6,186.8L265.6,186.8z
			 M268,279.7c-2.4,0-4.8-1.2-7.2-2.4c-8.4-4.8-14.5-14.5-15.7-26.5c-1.2-16.9,8.4-31.3,19.3-32.5h1.2c2.4,0,4.8,1.2,7.2,2.4
			c8.4,4.8,14.5,14.5,15.7,27.7C289.7,265.2,281.3,279.7,268,279.7L268,279.7L268,279.7z M462.1,374.9c-3.6,0-7.2-1.2-9.6-2.4
			c-4.8-2.4-8.4-7.2-10.8-12.1c-1.2-6-1.2-10.8,1.2-16.9c3.6-7.2,10.8-12.1,19.3-12.1c3.6,0,7.2,1.2,9.6,2.4
			c10.8,4.8,14.5,18.1,9.6,28.9C477.8,370.1,470.5,374.9,462.1,374.9L462.1,374.9z M295.8,436.4c-1.2,0-2.4,0-3.6-1.2
			c-3.6-2.4-4.8-6-3.6-9.6c1.2-2.4,3.6-3.6,6-3.6c1.2,0,2.4,0,3.6,1.2c1.2,1.2,3.6,2.4,3.6,4.8c0,2.4,0,3.6,0,6
			C300.6,435.2,298.2,436.4,295.8,436.4L295.8,436.4z"/>
	</g>
</g>
</svg>
