<?xml version="1.0" encoding="UTF-8" standalone="no"?>
<svg width="38px" height="38px" viewBox="0 0 38 38" version="1.1" xmlns="http://www.w3.org/2000/svg" xmlns:xlink="http://www.w3.org/1999/xlink" xmlns:sketch="http://www.bohemiancoding.com/sketch/ns">
    <!-- Generator: Sketch 3.4 (15575) - http://www.bohemiancoding.com/sketch -->
    <title>Circle Arrow CTA White</title>
    <desc>Created with Sketch.</desc>
    <defs></defs>
    <g id="Page-1" stroke="none" stroke-width="1" fill="none" fill-rule="evenodd" sketch:type="MSPage">
        <g id="Circle-Arrow-CTA-White" sketch:type="MSArtboardGroup">
            <g id="Page-1" sketch:type="MSLayerGroup" transform="translate(2.000000, 2.000000)">
                <path d="M0,17.5 C0,7.83485294 7.83485294,0 17.5,0 C27.1651471,0 35,7.83485294 35,17.5 C35,27.1651471 27.1651471,35 17.5,35 C7.83485294,35 0,27.1651471 0,17.5" id="Fill-1" fill="#FFFFFF" sketch:type="MSShapeGroup"></path>
                <path d="M15.9484706,20.4646029 L14.9262647,19.4423971 L18.0289118,16.33975 L14.9262647,13.2371029 L15.9484706,12.2148971 L20.0733235,16.33975 L15.9484706,20.4646029 Z" id="Fill-3" fill="#455F6C" sketch:type="MSShapeGroup"></path>
            </g>
        </g>
    </g>
</svg>