<svg width="30" height="30" xmlns="http://www.w3.org/2000/svg">
 <!-- Created with SVG-edit - http://svg-edit.googlecode.com/ -->
 <g>
  <title>Layer 1</title>
  <rect id="svg_2" height="30.1532" width="30" y="-0.02362" x="-0.05" stroke-linecap="null" stroke-linejoin="null" stroke-width="0" stroke="#000000" fill="#455F6c"/>
  <path id="svg_3" d="m6.01414,13.44027l2.0523,-2.74559l5.62239,7.51741l9.37235,-12.52889l2.05294,2.74341l-11.4253,15.27638" stroke-linecap="null" stroke-linejoin="null" stroke-width="0" stroke="#000000" fill="#ffffff"/>
 </g>
</svg>