<?xml version="1.0" encoding="UTF-8" standalone="no"?>
<svg width="33px" height="39px" viewBox="0 0 33 39" version="1.1" xmlns="http://www.w3.org/2000/svg" xmlns:xlink="http://www.w3.org/1999/xlink" xmlns:sketch="http://www.bohemiancoding.com/sketch/ns">
    <!-- Generator: Sketch 3.4 (15575) - http://www.bohemiancoding.com/sketch -->
    <title>Map Locator</title>
    <desc>Created with Sketch.</desc>
    <defs>
        <path id="path-1" d="M0,0.276 L30.873,0.276 L30.873,38 L0,38"></path>
    </defs>
    <g id="Page-1" stroke="none" stroke-width="1" fill="none" fill-rule="evenodd" sketch:type="MSPage">
        <g id="Map-Locator" sketch:type="MSArtboardGroup">
            <g id="Page-1" sketch:type="MSLayerGroup" transform="translate(1.000000, 0.000000)">
                <mask id="mask-2" sketch:name="Clip 2" fill="white">
                    <use xlink:href="#path-1"></use>
                </mask>
                <g id="Clip-2"></g>
                <path d="M15.4366,26.1367 C9.4816,26.1367 4.6526,21.3087 4.6526,15.3537 C4.6526,9.3977 9.4816,4.5697 15.4366,4.5697 C21.3916,4.5697 26.2206,9.3977 26.2206,15.3537 C26.2206,21.3087 21.3916,26.1367 15.4366,26.1367 M15.4356,0.2767 L15.4346,0.2767 C11.3136,0.2767 7.4356,1.8847 4.5216,4.7957 C1.6056,7.7147 -0.0004,11.5907 -0.0004,15.7137 C-0.0004,23.0307 5.3916,28.2387 11.6326,34.2717 C12.7466,35.3477 13.8926,36.4557 15.0506,37.6147 L15.4376,37.9997 L15.8236,37.6147 C16.9786,36.4587 18.1236,35.3507 19.2346,34.2777 C25.4806,28.2417 30.8746,23.0307 30.8736,15.7137 C30.8736,7.2027 23.9486,0.2767 15.4356,0.2767" id="Fill-1" fill="#568391" sketch:type="MSShapeGroup" mask="url(#mask-2)"></path>
            </g>
        </g>
    </g>
</svg>