<?xml version="1.0" encoding="UTF-8" standalone="no"?>
<svg width="37px" height="37px" viewBox="0 0 37 37" version="1.1" xmlns="http://www.w3.org/2000/svg" xmlns:xlink="http://www.w3.org/1999/xlink" xmlns:sketch="http://www.bohemiancoding.com/sketch/ns">
    <!-- Generator: Sketch 3.4 (15575) - http://www.bohemiancoding.com/sketch -->
    <title>Circle Arrow CTA All White</title>
    <desc>Created with Sketch.</desc>
    <defs></defs>
    <g id="Page-1" stroke="none" stroke-width="1" fill="none" fill-rule="evenodd" sketch:type="MSPage">
        <g id="Circle-Arrow-CTA-All-White" sketch:type="MSArtboardGroup">
            <g id="Page-1" sketch:type="MSLayerGroup" transform="translate(1.000000, 1.000000)">
                <path d="M0.5,17.5 C0.5,8.111 8.111,0.5 17.5,0.5 C26.889,0.5 34.5,8.111 34.5,17.5 C34.5,26.889 26.889,34.5 17.5,34.5 C8.111,34.5 0.5,26.889 0.5,17.5 L0.5,17.5 Z" id="Stroke-1" stroke="#FFFFFF" sketch:type="MSShapeGroup"></path>
                <path d="M15.9928,20.3799 L14.9998,19.3869 L18.0138,16.3729 L14.9998,13.3589 L15.9928,12.3659 L19.9998,16.3729 L15.9928,20.3799 Z" id="Fill-3" fill="#FFFFFF" sketch:type="MSShapeGroup"></path>
            </g>
        </g>
    </g>
</svg>