<?xml version="1.0" encoding="utf-8"?>
<!-- Generator: Adobe Illustrator 17.1.0, SVG Export Plug-In . SVG Version: 6.00 Build 0)  -->
<!DOCTYPE svg PUBLIC "-//W3C//DTD SVG 1.1//EN" "http://www.w3.org/Graphics/SVG/1.1/DTD/svg11.dtd">
<svg version="1.1" id="Layer_1" xmlns="http://www.w3.org/2000/svg" xmlns:xlink="http://www.w3.org/1999/xlink" x="0px" y="0px"
	 width="25px" height="25px" viewBox="0 0 25 25" enable-background="new 0 0 25 25" xml:space="preserve">
<path id="favorite-3-icon_18_" fill="#9b6663" d="M12.5,22.2c-7.5-7.3-9.6-10-10-12.7C1.9,6.1,4.4,2.8,8.3,2.8
	c1.7,0,3.2,0.6,4.2,1.7c1-1.1,2.5-1.7,4.2-1.7c3.9,0,6.4,3.3,5.8,6.7C22.1,12.2,20.1,14.8,12.5,22.2z"/>
</svg>
