<?xml version="1.0" encoding="UTF-8" standalone="no"?>
<svg width="100px" height="100px" viewBox="0 0 100 100" version="1.1" xmlns="http://www.w3.org/2000/svg" xmlns:xlink="http://www.w3.org/1999/xlink" xmlns:sketch="http://www.bohemiancoding.com/sketch/ns">
    <!-- Generator: Sketch 3.0.4 (8053) - http://www.bohemiancoding.com/sketch -->
    <title>filter</title>
    <desc>Created with Sketch.</desc>
    <defs></defs>
    <g id="Page-1" stroke="none" stroke-width="1" fill="none" fill-rule="evenodd" sketch:type="MSPage">
        <g id="filter" sketch:type="MSArtboardGroup" fill="#000000">
            <path d="M3.526,19.3055833 L97.4647647,19.3055833 L3.526,19.3055833 Z M-0.487764706,15.2951667 L101.478529,15.2951667 L101.478529,23.3288333 L-0.487764706,23.3288333 L-0.487764706,15.2951667 Z M12.6050588,46.5186667 L88.3857059,46.5186667 L88.3857059,54.5523333 L12.6050588,54.5523333 L12.6050588,46.5186667 Z M27.9740588,77.7421667 L73.0167059,77.7421667 L73.0167059,85.7758333 L27.9740588,85.7758333 L27.9740588,77.7421667 Z" id="Fill-1" sketch:type="MSShapeGroup"></path>
        </g>
    </g>
</svg>