<?xml version="1.0" encoding="utf-8"?>
<!-- Generator: Adobe Illustrator 20.0.0, SVG Export Plug-In . SVG Version: 6.00 Build 0)  -->
<svg version="1.1" id="Layer_1" xmlns="http://www.w3.org/2000/svg" xmlns:xlink="http://www.w3.org/1999/xlink" x="0px" y="0px"
	 viewBox="0 0 64.1 69.8" style="enable-background:new 0 0 64.1 69.8;" xml:space="preserve">
<style type="text/css">
	.st0{opacity:0.2;fill:#4A4A4A;enable-background:new    ;}
	.st1{fill:#5E0023;stroke:#FFFFFF;stroke-width:0.6;}
	.st2{fill:#FFFFFF;}
</style>
<title>closed_salon_for_card_view</title>
<desc>Created with Sketch.</desc>
<g id="Icons">
	<g id="Desktop-HD" transform="translate(-426.000000, -299.000000)">
		<g id="closed_salon_for_card_view" transform="translate(431.000000, 304.000000)">
			<g id="closed_salon_state_icon">
				<g id="Oval-172">
					<ellipse class="st0" cx="24.4" cy="61" rx="1.8" ry="0.9"/>
				</g>
				<g id="Oval-171">
					<g>
						<path d="M22.7,58.4c0.1,0,1.1,2.2,1.6,2.2s1.4-2.2,1.6-2.2c3.2-0.7,5.6-3.5,5.6-6.9c0-3.9-3.2-7.1-7.2-7.1s-7.2,3.1-7.2,7.1
							C17.1,54.9,19.5,57.7,22.7,58.4z"/>
					</g>
					<g>
						<path id="path-2_1_" class="st1" d="M22.7,58.4c0.1,0,1.1,2.2,1.6,2.2s1.4-2.2,1.6-2.2c3.2-0.7,5.6-3.5,5.6-6.9
							c0-3.9-3.2-7.1-7.2-7.1s-7.2,3.1-7.2,7.1C17.1,54.9,19.5,57.7,22.7,58.4z"/>
					</g>
				</g>
				<path id="Fill-1" class="st2" d="M23.2,48c0.4,0,0.7,0.2,0.6,0.6c0,0.3-0.4,0.6-0.7,0.6s-0.6-0.2-0.6-0.6
					C22.5,48.3,22.8,47.9,23.2,48 M24.3,51.5c0.1,0,0.2,0.1,0.2,0.2c0,0.1-0.1,0.2-0.2,0.2c-0.1,0-0.2-0.1-0.2-0.2
					C24,51.6,24.2,51.5,24.3,51.5 M24.8,48.6c0-0.3,0.4-0.6,0.7-0.6s0.7,0.3,0.7,0.6c0,0.2-0.4,0.6-0.7,0.6
					C25.2,49.3,24.8,49,24.8,48.6 M23.2,49.6c0.2,0,0.4,0.1,0.4,0.3c0.1,0.3,0.2,2.1,0.2,2.1s0.2,4.3,0.4,4.5l0.1-0.1
					c0-0.3,0.1-0.6,0.1-0.8c0,0.3,0.1,0.6,0.1,0.8l0.1,0.1c0.1-0.1,0.4-4.6,0.4-4.6s0-1.6,0.1-2.1c0-0.2,0.1-0.2,0.4-0.2
					c0.4,0,0.8-0.3,0.8-0.7c0-0.3,0-0.7-0.4-0.9c-0.1-0.3,0-0.6,0.5-0.8c0.1,0,0.2,0,0.1-0.1c0-0.1-0.1-0.1-0.2-0.1
					c-0.4,0.1-0.7,0.3-0.8,0.7c0,0.1,0,0.2,0,0.2c-0.2-0.1-0.6,0-0.8,0.2c0,0.1-0.1,0.2-0.2,0.2c-0.1,0.2-0.1,0.3-0.1,0.6
					c0,0.1,0,0.1,0,0.2c0,0.1,0.1,0.1,0.1,0.2c0,0.1,0,0.1,0.1,0.1c0.5,0.7-0.2,1.7-0.2,1.7s-0.7-1.1-0.2-1.8
					c0.4-0.7-0.1-1.4-0.8-1.6c-0.4-0.1-1,0.2-1,0.7C22.1,49.2,22.5,49.6,23.2,49.6"/>
			</g>
		</g>
	</g>
</g>
</svg>
