<?xml version="1.0" encoding="UTF-8" standalone="no"?>
<svg width="42px" height="42px" viewBox="0 0 42 42" version="1.1" xmlns="http://www.w3.org/2000/svg" xmlns:xlink="http://www.w3.org/1999/xlink" xmlns:sketch="http://www.bohemiancoding.com/sketch/ns">
    <!-- Generator: Sketch 3.4.2 (15855) - http://www.bohemiancoding.com/sketch -->
    <title>Map Circles</title>
    <desc>Created with Sketch.</desc>
    <defs></defs>
    <g id="Page-1" stroke="none" stroke-width="1" fill="none" fill-rule="evenodd" sketch:type="MSPage">
        <g id="Map-Circles" sketch:type="MSArtboardGroup" fill="#B44444">
            <g id="Fill-1-+-Fill-3" sketch:type="MSLayerGroup" transform="translate(1.000000, 1.000000)">
                <path d="M0,20.001 C0,8.956 8.954,0.002 19.999,0.002 C31.044,0.002 39.998,8.956 39.998,20.001 C39.998,31.046 31.044,40 19.999,40 C8.954,40 0,31.046 0,20.001" id="Fill-1" fill-opacity="0.3" sketch:type="MSShapeGroup"></path>
                <path d="M9.9995,20.001 C9.9995,14.478 14.4765,10.002 19.9985,10.002 C25.5215,10.002 29.9985,14.478 29.9985,20.001 C29.9985,25.524 25.5215,30 19.9985,30 C14.4765,30 9.9995,25.524 9.9995,20.001" id="Fill-3" fill-opacity="0.6" sketch:type="MSShapeGroup"></path>
            </g>
        </g>
    </g>
</svg>