<svg width="26" height="26" xmlns="http://www.w3.org/2000/svg">
 <!-- Created with SVG-edit - http://svg-edit.googlecode.com/ -->
 <g>
  <title>Layer 1</title>
  <g id="svg_6">
   <circle id="svg_1" r="9.867309" cy="13.249997" cx="12.749997" stroke="#727173" fill="#ffffff"/>
   <circle fill="#568391" stroke="#f3f3f3" stroke-linejoin="null" stroke-linecap="null" cx="12.749997" cy="13.249996" r="4.387792" id="svg_4"/>
  </g>
 </g>
</svg>