<?xml version="1.0" encoding="UTF-8" standalone="no"?>
<svg width="24px" height="24px" viewBox="0 0 24 24" version="1.1" xmlns="http://www.w3.org/2000/svg" xmlns:xlink="http://www.w3.org/1999/xlink" xmlns:sketch="http://www.bohemiancoding.com/sketch/ns">
    <!-- Generator: Sketch 3.4 (15575) - http://www.bohemiancoding.com/sketch -->
    <title>Account</title>
    <desc>Created with Sketch.</desc>
    <defs>
        <path id="path-1" d="M0,0.459375 L20.199375,0.459375 L20.199375,21 L0,21 L0,0.459375 Z"></path>
    </defs>
    <g id="Page-1" stroke="none" stroke-width="1" fill="none" fill-rule="evenodd" sketch:type="MSPage">
        <g id="Account" sketch:type="MSArtboardGroup">
            <g id="Page-1" sketch:type="MSLayerGroup" transform="translate(2.000000, 1.000000)">
                <path d="M10.1390625,1.3316625 C10.1259375,1.3316625 10.1128125,1.3342875 10.0996875,1.3342875 C10.0865625,1.3342875 10.0734375,1.3316625 10.0603125,1.3316625 L10.1390625,1.3316625" id="Fill-1" fill="#727173" sketch:type="MSShapeGroup"></path>
                <g id="Group-5">
                    <mask id="mask-2" sketch:name="Clip 4" fill="white">
                        <use xlink:href="#path-1"></use>
                    </mask>
                    <g id="Clip-4"></g>
                    <path d="M10.0996875,0.4589375 L10.0891875,0.4589375 C7.2708125,0.4939375 5.2259375,2.8240625 5.2259375,6.0011875 C5.2259375,8.0854375 6.1271875,10.0235625 7.5875625,11.0963125 L7.4108125,11.8619375 C5.4123125,12.1926875 3.5538125,12.9154375 2.0286875,13.9540625 C0.7581875,14.8194375 -0.0004375,16.2631875 -0.0004375,17.8171875 L-0.0004375,19.0395625 L-0.0004375,19.6678125 L0.5954375,19.8690625 C0.7319375,19.9145625 4.0184375,20.9995625 10.1530625,20.9995625 C16.2920625,20.9995625 19.4796875,19.9119375 19.6126875,19.8655625 L20.1989375,19.6608125 L20.1989375,19.0395625 L20.1989375,17.8171875 C20.1989375,16.2631875 19.4403125,14.8194375 18.1698125,13.9540625 C16.6455625,12.9154375 14.7870625,12.1926875 12.7885625,11.8619375 L12.6118125,11.0963125 C14.0721875,10.0235625 14.9734375,8.0854375 14.9734375,6.0011875 C14.9734375,2.8240625 12.9276875,0.4939375 10.1101875,0.4589375 L10.0996875,0.4589375 Z M10.0996875,1.3339375 C12.3108125,1.3610625 14.0984375,3.2116875 14.0984375,6.0011875 C14.0984375,7.9209375 13.2514375,9.5921875 12.0036875,10.4566875 C11.7735625,10.6159375 11.6694375,10.9011875 11.7315625,11.1741875 L11.9634375,12.1778125 C12.0281875,12.4578125 12.2600625,12.6643125 12.5435625,12.7089375 C14.8798125,13.0781875 16.5694375,13.9216875 17.6771875,14.6768125 C18.7140625,15.3829375 19.3239375,16.5624375 19.3239375,17.8171875 L19.3239375,19.0395625 C19.3239375,19.0395625 16.2141875,20.1245625 10.1530625,20.1245625 C4.0919375,20.1245625 0.8745625,19.0395625 0.8745625,19.0395625 L0.8745625,17.8171875 C0.8745625,16.5624375 1.4844375,15.3829375 2.5213125,14.6768125 C3.6299375,13.9216875 5.3195625,13.0781875 7.6549375,12.7089375 C7.9384375,12.6643125 8.1711875,12.4578125 8.2350625,12.1778125 L8.4669375,11.1741875 C8.5299375,10.9011875 8.4258125,10.6150625 8.1956875,10.4558125 C6.9470625,9.5921875 6.1009375,7.9209375 6.1009375,6.0011875 C6.1009375,3.2116875 7.8876875,1.3610625 10.0996875,1.3339375 L10.0996875,1.3339375 Z" id="Fill-3" fill="#727173" sketch:type="MSShapeGroup" mask="url(#mask-2)"></path>
                </g>
            </g>
        </g>
    </g>
</svg>