<?xml version="1.0" encoding="UTF-8" standalone="no"?>
<svg width="28px" height="28px" viewBox="0 0 28 28" version="1.1" xmlns="http://www.w3.org/2000/svg" xmlns:xlink="http://www.w3.org/1999/xlink" xmlns:sketch="http://www.bohemiancoding.com/sketch/ns">
    <!-- Generator: Sketch 3.4.2 (15855) - http://www.bohemiancoding.com/sketch -->
    <title>Toggle Circle</title>
    <desc>Created with Sketch.</desc>
    <defs>
        <path id="path-1" d="M0,0.055 L24.945,0.055 L24.945,25 L0,25"></path>
    </defs>
    <g id="Page-1" stroke="none" stroke-width="1" fill="none" fill-rule="evenodd" sketch:type="MSPage">
        <g id="Toggle-Circle" sketch:type="MSArtboardGroup">
            <g id="Page-1" sketch:type="MSLayerGroup" transform="translate(2.000000, 2.000000)">
                <mask id="mask-2" sketch:name="Clip 2" fill="white">
                    <use xlink:href="#path-1"></use>
                </mask>
                <g id="Clip-2"></g>
                <path d="M24.9454,12.5273 C24.9454,19.4153 19.3614,25.0003 12.4724,25.0003 C5.5844,25.0003 0.0004,19.4153 0.0004,12.5273 C0.0004,5.6393 5.5844,0.0543 12.4724,0.0543 C19.3614,0.0543 24.9454,5.6393 24.9454,12.5273" id="Fill-1" fill="#727173" sketch:type="MSShapeGroup" mask="url(#mask-2)"></path>
            </g>
        </g>
    </g>
</svg>