<?xml version="1.0" encoding="iso-8859-1"?>
<!-- Generator: Adobe Illustrator 19.1.0, SVG Export Plug-In . SVG Version: 6.00 Build 0)  -->
<svg version="1.1" id="Layer_1" xmlns="http://www.w3.org/2000/svg" xmlns:xlink="http://www.w3.org/1999/xlink" x="0px" y="0px"
	 viewBox="0 0 1225 793" style="enable-background:new 0 0 1225 793;" xml:space="preserve">
<g>
	<path d="M666.862,340.724c-0.05-4.969-0.013-3.618-0.035-6.6c-0.064-8.803-5.737-10.897-13.349-10.897
		c-8.02,0-14.211,2.892-14.417,11.534l-6.483,0.017c0.617-12.466,9.591-17.004,21.724-17.004c9.357,0,19.543,2.882,19.543,17.094
		v28.228v9.353l-7.029,0.01v-7.067c-4.631,6.321-8.318,8.63-18.524,8.63c-9.795,0-17.822-4.835-17.822-15.537
		c0-13.844,11.6-16.186,35.854-17.711C666.676,340.75,666.862,340.724,666.862,340.724z M666.911,346.092
		c-0.039,0.003-5.147,0.297-10.072,0.831c-16.02,1.738-19.438,5.319-19.438,11.436c0,6.299,5.602,10.2,11.505,10.2
		c9.602,0,18.105-6.464,18.006-16.563V346.092z"/>
	<g>
		<path d="M461.321,347.256c0.001,12.919,8.292,21.03,18.223,21.024c10.614-0.007,18.698-6.381,18.681-17.921h-18.619v-5.966h25.81
			c0.057,3.673,1.969,29.826-25.646,29.888c-17.566,0.039-25.423-14.142-25.407-27.051c0.025-19.796,11.453-28.933,25.08-28.899
			c12.836,0.032,20.689,6.271,24.174,16.902h-7.021c-3.435-7.436-10.502-10.925-16.438-10.905
			C467.646,324.371,461.346,333.591,461.321,347.256z"/>
		<path d="M450.867,355.438c-3.921,15.174-14.173,18.826-25.047,18.829c-13.576,0.005-25.371-9.28-25.319-28.403
			c0.042-15.565,9.345-27.562,25.028-27.543c26.161,0.03,26.651,26.141,25.975,32.034h-43.892
			c0.025,4.299,4.346,17.969,18.208,17.932c7.949-0.022,15.598-3.782,17.968-12.845L450.867,355.438z M444.528,344.389
			c0-12.896-9.127-20.075-18.792-20.067c-11.989,0.012-18.132,10.626-18.123,20.067H444.528z"/>
		<path d="M364.401,343.754v-18.709h17.582c6.631,0,9.463,3.908,9.463,9.166c0,7.815-5.663,9.543-12.295,9.543H364.401z
			 M357.279,372.464h7.122V349.73h17.284c6.834,0,8.105,4.397,8.852,9.616c1.047,5.217-0.075,10.957,1.944,13.118h7.924
			c-2.988-3.653-2.688-9.467-3.137-14.685c-0.523-5.217-1.795-9.768-8.001-10.964v-0.148c6.452-1.794,9.3-7.12,9.3-13.582
			c0-8.561-6.221-14.016-16.211-14.016h-25.076V372.464z"/>
		<path d="M509.553,319.069h7.121v53.395h-7.121V319.069z"/>
		<path d="M554.945,334.653c-0.819-7.621-5.884-10.907-13.181-10.907c-5.958,0-11.916,2.167-11.916,9.114
			c0,6.574,8.49,7.545,17.088,9.603c8.535,1.942,17.079,4.931,17.079,15.388c0,11.354-11.164,15.912-20.897,15.912
			c-11.979,0-22.079-5.828-22.079-18.824h6.731c0,8.963,7.486,12.849,15.572,12.849c6.44,0,13.552-2.019,13.552-9.713
			c0-7.32-8.536-8.591-17.066-10.575c-8.49-1.865-17.101-4.332-17.101-14.117c0-10.83,9.653-15.612,19.334-15.612
			c10.873,0,19.167,5.155,19.615,16.883H554.945z"/>
	</g>
	<path d="M618.575,334.653c-0.82-7.621-5.886-10.907-13.184-10.907c-5.956,0-11.916,2.167-11.916,9.114
		c0,6.574,8.491,7.545,17.088,9.603c8.536,1.942,17.081,4.931,17.081,15.388c0,11.354-11.165,15.912-20.898,15.912
		c-11.979,0-22.079-5.828-22.079-18.824h6.731c0,8.963,7.485,12.849,15.572,12.849c6.44,0,13.552-2.019,13.552-9.713
		c0-7.32-8.534-8.591-17.066-10.575c-8.491-1.865-17.101-4.332-17.101-14.117c0-10.83,9.653-15.612,19.334-15.612
		c10.874,0,19.167,5.155,19.615,16.883H618.575z"/>
	<path d="M680.06,319.069h7.123v47.419h16.953v5.976H680.06V319.069z"/>
	<path d="M707.862,345.767c0-10.783,5.436-22.02,18.394-22.02s18.395,11.237,18.395,22.02c0,10.785-5.437,22.022-18.395,22.022
		S707.862,356.552,707.862,345.767z M700.743,345.767c0,14.531,8.609,27.997,25.514,27.997c16.906,0,25.516-13.466,25.516-27.997
		c0-14.53-8.609-27.996-25.516-27.996C709.352,317.771,700.743,331.236,700.743,345.767z"/>
	<path d="M755.304,319.069h7.555l28.151,43.299h0.149v-43.299h6.731v53.395h-7.78l-27.926-42.849h-0.149v42.849h-6.732V319.069z"/>
</g>
</svg>
