<?xml version="1.0" encoding="utf-8"?>
<!-- Generator: Adobe Illustrator 18.0.0, SVG Export Plug-In . SVG Version: 6.00 Build 0)  -->
<!DOCTYPE svg PUBLIC "-//W3C//DTD SVG 1.1//EN" "http://www.w3.org/Graphics/SVG/1.1/DTD/svg11.dtd">
<svg version="1.1" id="Layer_1" xmlns="http://www.w3.org/2000/svg" xmlns:xlink="http://www.w3.org/1999/xlink" x="0px" y="0px"
	 viewBox="0 0 61.1 67.8" enable-background="new 0 0 61.1 67.8" xml:space="preserve">
<g>
	<path fill="#FFFFFF" d="M37,21H24.3c-0.7,0-1.3,0.6-1.3,1.3v23.5c0,0.7,0.6,1.3,1.3,1.3H37c0.7,0,1.3-0.6,1.3-1.3V22.2
		C38.3,21.5,37.7,21,37,21z M30.6,46.4c-0.9,0-1.5-0.7-1.5-1.5c0-0.9,0.7-1.5,1.5-1.5c0.9,0,1.5,0.7,1.5,1.5
		C32.2,45.7,31.5,46.4,30.6,46.4z M36.6,42.5H24.7V22.9h11.9V42.5z"/>
</g>
</svg>
