<svg width="33" height="39" xmlns="http://www.w3.org/2000/svg" xmlns:xlink="http://www.w3.org/1999/xlink">
 <!-- Generator: Sketch 3.4 (15575) - http://www.bohemiancoding.com/sketch -->
 <title>Map Locator</title>
 <desc>Created with Sketch.</desc>
 <defs>
  <path d="m0,0.276l30.873,0l0,37.724l-30.873,0" id="path-1"/>
 </defs>
 <g>
  <title>Layer 1</title>
  <g fill-rule="evenodd" fill="red" id="Page-1">
   <g id="Map-Locator">
    <g id="Page-1">
     <mask id="mask-2">
      <use id="svg_1" xlink:href="#path-1"/>
     </mask>
     <g id="Clip-2"/>
     <path fill="#568391" id="Fill-1" d="m15.4366,26.1367c-5.955,0 -10.784,-4.828 -10.784,-10.783c0,-5.956 4.829,-10.784 10.784,-10.784c5.955,0 10.784,4.828 10.784,10.784c0,5.955 -4.829,10.783 -10.784,10.783m-0.001,-25.86l-0.001,0c-4.121,0 -7.999,1.608 -10.913,4.519c-2.916,2.919 -4.522,6.795 -4.522,10.918c0,7.317 5.392,12.525 11.633,18.558c1.114,1.076 2.26,2.184 3.418,3.343l0.387,0.385l0.386,-0.385c1.155,-1.156 2.3,-2.264 3.411,-3.337c6.246,-6.036 11.64,-11.247 11.639,-18.564c0,-8.511 -6.925,-15.437 -15.438,-15.437"/>
    </g>
   </g>
  </g>
  <circle id="svg_2" r="10.74744" cy="15.3" cx="15.35" stroke-width="0" stroke="#000000" fill="#ffffff"/>
 </g>
</svg>