<?xml version="1.0" encoding="utf-8"?>
<!-- Generator: Adobe Illustrator 18.1.1, SVG Export Plug-In . SVG Version: 6.00 Build 0)  -->
<svg version="1.1" id="Layer_1" xmlns="http://www.w3.org/2000/svg" xmlns:xlink="http://www.w3.org/1999/xlink" x="0px" y="0px"
	 viewBox="0 0 100 100" enable-background="new 0 0 100 100" xml:space="preserve">
<path d="M31.9,35.6c-0.8,0-0.8,0-1.1-0.8c-0.6-1.5-0.9-3-1.2-4.5c-0.2-0.8-0.4-1.5-0.7-2.2c-0.2-0.5-0.5-0.9-0.9-1.2
	c-0.8-0.9-1.7-1.6-2.7-2.1c-0.3-0.1-0.5-0.2-0.8-0.3c-2.5-0.2-4.4-1.4-6.3-2.9c-1.8-1.4-2.6-3.2-2.9-5.4c-0.2-1.5-0.3-3-0.4-4.4
	c0-1.2,0.2-2.3,0.7-3.4c0.2-0.4,0.3-0.9,0.5-1.3c0.3-0.7,0.7-1.3,1.2-1.8c0.6-0.6,1-1.2,1.6-1.7c0.9-0.9,2-1.6,3.2-2.1
	c0.1,0,0.1-0.1,0.2-0.1c1-0.1,1.9-0.2,2.9-0.3c1.2-0.1,2.2,0.3,3.2,0.8c0.4,0.2,0.7,0.4,1.1,0.5c1.5,0.6,2.4,1.8,3,3.2
	c0.6,1.3,1,2.6,1.5,3.9c0.2,0,0.4,0,0.6-0.1c0.4-0.1,0.7,0.1,0.7,0.5c0.1,0.4,0.2,0.9,0.2,1.3c0,0.2-0.2,0.6-0.4,0.7
	c-0.4,0.2-0.4,0.5-0.4,0.8c0.1,1.1,0.1,2.2,0.2,3.4c0,0.5,0,0.9,0.1,1.4c0.4,3.1,0.7,6.3,0.9,9.5c0.1,2.1,0.5,4.2,0.7,6.3
	c0.1,0.5,0.2,0.9-0.2,1.4c0,0.1,0,0.2,0,0.3c1,1.8,1.9,3.5,2.9,5.4c0.3-0.5,0.6-1,1-1.5c1.5-1.8,3-3.6,4.6-5.4
	c0.2-0.2,0.4-0.5,0.5-0.8c1.4-3.4,2.5-6.9,3.6-10.4c0.7-2.3,1.7-4.5,2.6-6.8c0.5-1.3,0.8-2.7,1.4-4.1c0.5-1.2,1-2.4,1.8-3.5
	c0.6-0.8,1-1.7,1.7-2.4c1.3-1.3,2.5-2.7,4.2-3.4c1.7-0.6,3.4-0.8,5.1,0.2c0.2,0.1,0.5,0.3,0.7,0.5c1,0.8,2.2,0.8,3.4,0.4
	c1.3-0.5,2.7-1,3.9-1.6c1.7-0.9,3.5-1.2,5.3-1.3c0.3,0,0.7,0.1,1.1,0.2c0.3,0,0.5,0.1,0.8,0.1c0.2,0,0.3,0,0.5,0.1
	c0.5,0.2,1,0.4,1.6,0.6c0.4,0.2,0.8,0.4,1.2,0.6c0.7,0.3,0.9,1,1,1.6c0.1,0.3-0.1,0.6-0.3,0.9c-0.9,0.8-2,0.9-3.1,0.6
	c-1-0.2-2-0.5-3-0.6c-0.8-0.1-1.7,0.1-2.6,0.1c-0.9,0-1.6,0.4-2.3,0.8c-0.4,0.2-0.7,0.6-1,0.9c-1.1,1-1.1,2.4-1.1,3.7
	c-0.1,1.9,0.2,3.9-0.5,5.8c-0.6,1.9-1.5,3.7-3.3,4.8c-0.4,0.2-0.6,0.6-0.9,0.9c-0.9,0.9-2,1.4-3,2.1c-1.2,0.8-2.6,0.9-4,1.1
	c-0.8,0.1-1.5,0.3-2.2,0.7c-1.3,0.6-2.4,1.6-3.4,2.7c-1,1.1-1.9,2.3-2.7,3.5c-0.7,1.1-1.2,2.4-1.5,3.7c-0.1,0.4-0.3,0.7-0.7,0.8
	c-0.1,0-0.2,0.1-0.2,0.2c-1,2-1.9,3.9-2.9,5.9c-0.7,1.4-1.4,2.9-2,4.3c-0.6,1.3-1,2.7-1.7,4c-0.5,1-0.3,1.9-0.3,2.9
	c0,2.5,0.1,5,0.2,7.4c0.2,4.5,0.3,8.9,0.6,13.4c0.1,2.3,0.4,4.7,0.6,7c0.2,2.4,0.4,4.8,0.5,7.2c0.1,1.4-0.1,2.9-0.1,4.3
	c0,1.3,0.2,2.6,0.3,4c0,0.4,0.1,0.8,0.2,1.1c0.2,0.6-0.2,1-0.4,1.4c-0.3,0.5-1.1,0.4-1.3-0.2c-0.3-0.8-0.4-1.6-0.6-2.3
	c-1-4.3-1.5-8.6-2.1-12.9c-0.4-2.6-0.9-5.2-1.3-7.8c-0.4-2.3-0.7-4.6-1.1-7c-0.3-1.9-0.6-3.9-1-5.8c-0.2,0.4-0.4,0.7-0.5,1.1
	c-0.4,1.5-1.2,2.8-1.8,4.1c-1,2.1-2,4.3-3.1,6.4c-0.9,1.8-1.8,3.5-2.7,5.3c-0.5,1.1-0.9,2.3-1.5,3.4c-1.5,2.8-3,5.7-4.8,8.4
	c-0.4,0.6-0.7,1.4-1.1,2c-0.6,1-1.2,2-1.9,3.1c-0.2,0.4-0.5,0.7-0.8,1c-0.1,0.1-0.3,0.2-0.4,0.2c-0.1,0-0.3-0.2-0.3-0.4
	c-0.1-0.3,0-0.7,0-1c0.4-4.1,1.6-8,3.1-11.8c1.5-3.6,2.9-7.2,4.3-10.8c0.9-2.3,1.9-4.6,2.8-7c1-2.4,1.9-4.9,2.8-7.4
	c0.7-1.8,1.4-3.6,2-5.5c0.3-0.8,0.4-1.7,0.7-2.5c0.2-0.5,0.5-1,0.8-1.5c0.1-0.1,0.1-0.3,0.1-0.4c-0.4-2-0.8-4.1-1.2-6.1
	c-0.2-1.2-0.4-2.5-0.6-3.7C32.4,38.6,32.1,37.1,31.9,35.6z M18.3,15.9c0.1,0.4,0.1,0.8,0.2,1.2c0,0.5,0.2,1,0.6,1.3
	c0.4,0.4,0.7,0.7,1.1,1c1,0.8,2.1,1.3,3.5,1.2c1.2-0.1,2.2-0.7,3.3-1c1.1-0.3,2-1,2.8-1.7c0.8-0.8,1.3-1.8,1.3-2.9
	c0-0.2,0-0.4,0.1-0.5c0.3-0.5,0.2-1,0.1-1.5c-0.2-0.9-0.5-1.8-0.8-2.7c-0.4-1.3-0.9-2.6-1.7-3.8c-1-1.3-2.3-2.1-3.9-2.1
	c-0.6,0-1.1,0.1-1.7,0.2c-0.7,0.2-1.5,0.4-2.1,0.9c-1.3,1.2-2.1,2.6-2.5,4.3C18,11.9,18,13.9,18.3,15.9z M36.3,52.4
	c2.2,13.4,4.3,26.8,6.5,40.2c0-0.1,0-0.2,0-0.3c0-1.1,0.1-2.2,0-3.3c-0.1-2.6-0.3-5.2-0.5-7.7c-0.2-3-0.5-6-0.7-9
	c-0.1-1.6-0.1-3.2-0.2-4.8c0-2.4,0.1-4.8,0-7.3c-0.1-3.2-0.2-6.4,0-9.6c0.1-0.9,0.2-1.8,0.2-2.6c0-0.5,0-0.8-0.6-1
	c-0.2-0.1-0.5-0.4-0.6-0.6c-0.4-0.7-0.7-1.4-1.1-2.1c-1.1-2.5-2.1-5-3.1-7.5c-0.2-0.5-0.4-0.9-0.6-1.4c-0.1-0.2-0.4-0.4-0.5-0.4
	c-0.7,0.1-1.4,0.2-2.2,0.4c1,5,1.9,10,2.9,15c0.1-0.1,0.1-0.1,0.1-0.2c0-0.1,0-0.1,0.1-0.2c0.4-0.6,0.8-1.1,1.5-1
	c0.8,0,1.7,0.7,2,1.6c0.3,0.9,0,2-0.5,2.5c-0.1,0.1-0.2,0.1-0.3,0.2C38.1,53.8,37,53.4,36.3,52.4z M61.3,20.3c1.4,0,2.6-0.5,3.8-1.1
	c0.2-0.1,0.5-0.3,0.6-0.4c0.3-0.3,0.5-0.7,0.8-1c0.9-1.2,1.5-2.4,1.6-3.9c0-0.3,0.1-0.6,0.1-0.9c0.1-0.6,0.2-1.2,0.2-1.7
	c0-0.3,0-0.6,0-0.9c0.1-0.8,0-1.5-0.5-2.1c-0.4-0.5-0.8-0.9-1.2-1.3c-1.6-1.3-3.9-1.5-5.8-0.2c-0.3,0.2-0.6,0.4-1,0.6
	c-0.9,0.4-1.5,1.1-1.9,2c-1.2,2.3-2,4.7-2.3,7.3c0,0.5,0,1,0.1,1.5c0.2,0.7,0.5,1.3,1.3,1.5c0.4,0.1,0.8,0.2,1.2,0.4
	C59.3,20.5,60.3,20.7,61.3,20.3z M34.8,52.5C34.8,52.5,34.8,52.5,34.8,52.5c-0.1,0.1-0.1,0.1-0.1,0.2c-0.5,1.8-0.9,3.5-1.4,5.3
	c-0.6,1.9-1.3,3.7-2,5.6c-0.9,2.3-1.8,4.5-2.7,6.8c-1.3,3.3-2.6,6.5-4,9.8c-1.7,4-3.2,8.1-4.6,12.2c0,0.1-0.1,0.3-0.1,0.4
	c0,0,0.1,0,0.1,0c0.2-0.5,0.5-0.9,0.8-1.3c2.1-3.1,3.9-6.4,5.5-9.8c0.3-0.7,0.6-1.4,0.9-2.1c0.7-1.4,1.5-2.8,2.2-4.2
	c1.9-3.9,3.7-7.9,5.8-11.6c0.3-0.5,0.6-1,1.2-1.1C36,59.1,35.4,55.8,34.8,52.5z M47.5,35.7c-0.7-0.1-1.4-0.2-2.1-0.4
	c-0.3-0.1-0.5,0-0.7,0.2c-1.3,1.6-2.6,3.2-3.8,4.8c-0.3,0.3-0.5,0.7-0.7,1.1c-0.1,0.1-0.1,0.3,0,0.4c0.9,1.3,1.7,2.7,2.1,4.3
	C44.1,42.6,45.8,39.1,47.5,35.7z M82.8,3.2c0-0.1,0.1-0.1,0.1-0.2c-0.5-0.3-1.1-0.7-1.6-1c-0.4-0.2-0.9-0.3-1.3,0.1
	c-0.2,0.2-0.5,0.2-0.8,0.2c-0.4,0.1-0.7,0.1-1.1,0.2c-0.3,0.1-0.5,0.2-0.7,0.3c0.6,0.2,1.3,0.2,1.9,0.4c0.4,0.1,0.8,0.3,1.2,0.3
	C81.1,3.4,81.9,3.3,82.8,3.2z">
        <animate attributeType="CSS" attributeName="opacity" from="0" to="1" dur="5s" repeatCount="indefinite" />
        <animate attributeType="CSS" attributeName="opacity" from="1" to="0" dur="5s" repeatCount="indefinite" />

    </path>
</svg>
