<?xml version="1.0" encoding="utf-8"?>
<!-- Generator: Adobe Illustrator 18.0.0, SVG Export Plug-In . SVG Version: 6.00 Build 0)  -->
<!DOCTYPE svg PUBLIC "-//W3C//DTD SVG 1.1//EN" "http://www.w3.org/Graphics/SVG/1.1/DTD/svg11.dtd">
<svg version="1.1" id="Layer_1" xmlns="http://www.w3.org/2000/svg" xmlns:xlink="http://www.w3.org/1999/xlink" x="0px" y="0px"
	 viewBox="0 0 792 1224" enable-background="new 0 0 792 1224" xml:space="preserve">
<polyline fill="#FFFFFF" stroke="#878B8E" stroke-width="0.4329" stroke-miterlimit="10" points="-18,1125 711,612 -18,99 "/>
<path fill="#86898C" d="M-203.3-34.2L711,612.1l-914.3,646 M-251.5,1233.2l10.2-7.2l868.9-613.9L-251.5-9.2"/>
</svg>
