<?xml version="1.0" encoding="UTF-8" standalone="no"?>
<svg width="28px" height="28px" viewBox="0 0 28 28" version="1.1" xmlns="http://www.w3.org/2000/svg" xmlns:xlink="http://www.w3.org/1999/xlink" xmlns:sketch="http://www.bohemiancoding.com/sketch/ns">
    <!-- Generator: Sketch 3.4 (15575) - http://www.bohemiancoding.com/sketch -->
    <title>Image Hot Spot Minus</title>
    <desc>Created with Sketch.</desc>
    <defs></defs>
    <g id="Page-1" stroke="none" stroke-width="1" fill="none" fill-rule="evenodd" sketch:type="MSPage">
        <g id="Image-Hot-Spot-Minus" sketch:type="MSArtboardGroup">
            <g id="Page-1" sketch:type="MSLayerGroup" transform="translate(3.000000, 3.000000)">
                <path d="M22.399,11.5505 C22.399,17.5975 17.497,22.4995 11.45,22.4995 C5.402,22.4995 0.5,17.5975 0.5,11.5505 C0.5,5.5035 5.402,0.6015 11.45,0.6015 C17.497,0.6015 22.399,5.5035 22.399,11.5505" id="Fill-1" fill="#7B5E69" sketch:type="MSShapeGroup"></path>
                <path d="M22.399,11.5505 C22.399,17.5975 17.497,22.4995 11.45,22.4995 C5.402,22.4995 0.5,17.5975 0.5,11.5505 C0.5,5.5035 5.402,0.6015 11.45,0.6015 C17.497,0.6015 22.399,5.5035 22.399,11.5505 L22.399,11.5505 Z" id="Stroke-3" stroke="#D5D5D5" sketch:type="MSShapeGroup"></path>
                <path d="M6.7569,11.5505 L16.1419,11.5505" id="Stroke-5" stroke="#FFFFFF" stroke-width="2" sketch:type="MSShapeGroup"></path>
            </g>
        </g>
    </g>
</svg>