<?xml version="1.0" encoding="UTF-8" standalone="no"?>
<svg width="21px" height="22px" viewBox="0 0 21 22" version="1.1" xmlns="http://www.w3.org/2000/svg" xmlns:xlink="http://www.w3.org/1999/xlink" xmlns:sketch="http://www.bohemiancoding.com/sketch/ns">
    <!-- Generator: Sketch 3.4 (15575) - http://www.bohemiancoding.com/sketch -->
    <title>Check In</title>
    <desc>Created with Sketch.</desc>
    <defs></defs>
    <g id="Page-1" stroke="none" stroke-width="1" fill="none" fill-rule="evenodd" sketch:type="MSPage">
        <g id="Check-In" sketch:type="MSArtboardGroup" stroke="#455F6C">
            <g id="Page-1" sketch:type="MSLayerGroup" transform="translate(1.000000, 2.000000)">
                <path d="M5.822835,7.64 L8.960685,10.943 L18.407485,1" id="Stroke-1" sketch:type="MSShapeGroup"></path>
                <path d="M18.05,10 L18.05,13.5 C18.05,16.261 15.92295,18.5 13.3,18.5 L5.225,18.5 C2.60205,18.5 0.475,16.261 0.475,13.5 L0.475,5 C0.475,2.239 2.60205,0 5.225,0 L8.55,0" id="Stroke-3" sketch:type="MSShapeGroup"></path>
            </g>
        </g>
    </g>
</svg>