<?xml version="1.0" encoding="utf-8"?>
<svg width="52px" height="32px" viewBox="0 0 52 32" xmlns="http://www.w3.org/2000/svg" xmlns:xlink="http://www.w3.org/1999/xlink">
  <desc>Created with Sketch.</desc>
  <defs>
    <path id="path-1" d="M0,0.066 L49.825,0.066 L49.825,30 L0,30"/>
    <path id="path-2" d="M0,0.055 L24.945,0.055 L24.945,25 L0,25"/>
  </defs>
  <g id="Page-1" style="stroke: none; stroke-width: 1px; fill: none; fill-rule: evenodd;" transform="matrix(1, 0, -0.00007722723239567132, 1, 0.001238107681274636, 0)">
    <g id="Toggle-Background">
      <g id="Page-1" transform="translate(1.000000, 1.000000)">
        <mask id="mask-2" style="fill: white;">
          <use xlink:href="#path-1"/>
        </mask>
        <g id="Clip-2"/>
        <path d="M49.825,15.0328 C49.825,6.9568 43.425,0.3938 35.422,0.0938 L35.422,0.0658 L17.152,0.0658 L17.152,0.2428 C16.437,0.1378 15.712,0.0658 14.967,0.0658 C6.701,0.0658 0,6.7668 0,15.0328 C0,23.2988 6.701,29.9998 14.967,29.9998 C15.712,29.9998 16.437,29.9278 17.152,29.8228 L17.152,29.9998 L35.422,29.9998 L35.422,29.9718 C43.425,29.6718 49.825,23.1088 49.825,15.0328" id="Fill-1" style="fill: rgb(209, 210, 211); mask: url(#mask-2);"/>
      </g>
    </g>
  </g>
  <mask id="mask-1" style="fill: white;">
    <use xlink:href="#path-2"/>
  </mask>
  <path d="M24.9454,12.5273 C24.9454,19.4153 19.3614,25.0003 12.4724,25.0003 C5.5844,25.0003 0.0004,19.4153 0.0004,12.5273 C0.0004,5.6393 5.5844,0.0543 12.4724,0.0543 C19.3614,0.0543 24.9454,5.6393 24.9454,12.5273" id="path-3" style="fill: rgb(114, 113, 115); mask: url(#mask-2);" transform="matrix(1, 0, 0, 1, 3.527099609375, 3.472701072692871)"/>
</svg>